{
  "extras": [
    "lazyvim.plugins.extras.lang.rust",
    "lazyvim.plugins.extras.lang.toml",
    "lazyvim.plugins.extras.util.chezmoi"
  ],
  "install_version": 8,
  "news": {
    "NEWS.md": "10960"
  },
  "version": 8
}